<svg xmlns="http://www.w3.org/2000/svg" width="17" height="17" viewBox="0 0 17 17">
  <g id="icon_point_minus_blue" data-name="icon point minus blue" transform="translate(17 17) rotate(180)" fill="#2667ff">
    <path d="M 15.38196086883545 16.50000190734863 L 1.618030905723572 16.50000190734863 C 1.366430997848511 16.50000190734863 1.236781001091003 16.33417320251465 1.192710995674133 16.26287269592285 C 1.148651003837585 16.19157218933105 1.058300971984863 16.00144195556641 1.170820951461792 15.77638244628906 L 8.052781105041504 2.012462854385376 C 8.139321327209473 1.839392781257629 8.306501388549805 1.73606276512146 8.500000953674316 1.73606276512146 C 8.693500518798828 1.73606276512146 8.86068058013916 1.839392781257629 8.947220802307129 2.012462854385376 L 15.82918071746826 15.77639293670654 C 15.94170093536377 16.00144195556641 15.85135078430176 16.19157218933105 15.80729103088379 16.26287269592285 C 15.76322078704834 16.33417320251465 15.63357067108154 16.50000190734863 15.38196086883545 16.50000190734863 Z" stroke="none"/>
    <path d="M 8.500000953674316 2.236063003540039 L 1.618030548095703 16.00000381469727 L 15.38196086883545 15.99999237060547 L 8.50001049041748 2.236072540283203 C 8.500009536743164 2.236069679260254 8.500007629394531 2.236065864562988 8.500005722045898 2.236063003540039 C 8.500004768371582 2.236063003540039 8.500002861022949 2.236063003540039 8.500000953674316 2.236063003540039 M 8.500000953674316 1.236064910888672 C 8.855083465576172 1.236064910888672 9.210165977478027 1.420328140258789 9.394431114196777 1.788852691650391 L 16.27639007568359 15.55278301239014 C 16.60884094238281 16.21768188476563 16.12535095214844 17.00000190734863 15.38196086883545 17.00000190734863 L 1.618030548095703 17.00000190734863 C 0.8746509552001953 17.00000190734863 0.3911609649658203 16.21768188476563 0.7236003875732422 15.55278301239014 L 7.605570793151855 1.788852691650391 C 7.789835929870605 1.420328140258789 8.144918441772461 1.236064910888672 8.500000953674316 1.236064910888672 Z" stroke="none" fill="#7da4ff"/>
  </g>
</svg>
